text,umap_x,umap_y,umap_z
adoration,2.4270108,11.337341,5.22212
amusement,1.0510261,11.212293,4.033887
anger,5.42296,14.175164,6.1242256
anguish,4.225328,13.646377,6.020816
anxiety,3.6921525,13.74543,4.562671
astonishment,3.4484422,14.140515,3.2248793
awe,3.2845855,13.513204,3.4026563
bewilderment,2.9484007,14.160059,3.2097242
boredom,2.7815769,13.922864,6.0147877
caring,3.0087996,12.270635,6.1037784
challenge,3.2461805,12.770289,4.4186788
confidence,3.547349,12.635406,4.4072633
confusion,2.8289878,14.092709,3.2825732
contemplation,2.8756094,12.151454,3.3866057
contempt,6.091172,13.282584,5.7004547
cynicism,4.088518,13.475173,6.802538
daze,2.8899057,14.35319,3.846886
dedication,2.4575357,11.475881,5.1478405
demoralization,3.6978385,13.292736,6.517492
despair,3.608496,13.116195,6.3923798
desperation,3.3854566,13.0341835,6.2251835
detachment,3.3946464,13.153883,4.829778
disappointment,4.435245,12.995206,6.2663755
disapproval,5.3622537,13.145855,6.249494
disdain,6.035762,13.435575,5.989458
disgust,5.658115,13.48205,5.0647545
dismay,4.465233,13.175323,6.151167
doubt,4.0086207,13.002655,4.056371
dread,4.144014,13.890328,4.8147144
eagerness,2.146496,12.713816,4.773381
elation,1.4908969,12.507007,4.288009
entrancement,1.4304426,12.501718,5.30931
epiphany,2.7853372,12.274968,3.6589804
fatigue,2.9248915,13.96398,5.7335587
fear,3.9681637,14.011895,4.292997
feeling betrayed,3.141769,14.887497,7.1291947
feeling creeped out,2.7485616,15.230608,4.694157
feeling crushed,3.0191255,14.516048,7.054259
feeling disinhibited,2.4009738,14.957355,5.804417
feeling let down,2.9538548,14.692898,6.9759345
feeling lost,2.6171439,14.8847885,6.1246448
feeling oppressed,2.7057002,15.2717085,6.4245124
feeling stuck,2.523171,15.1611185,6.1508756
feeling torn,3.2668078,14.646951,7.114352
focus,2.9646473,12.391835,3.082868
giddiness,1.3913131,12.826786,4.459475
gratification,1.0780451,11.716743,4.7704043
gratitude,2.0401654,11.565938,4.8287067
grit,3.4628403,12.912566,4.7689023
guilty pleasure,0.918766,11.621461,4.507461
hate,5.9721127,13.817417,6.0702405
heartbreak,3.1316648,13.072421,6.984585
helplessness,3.2860508,13.208385,6.287557
honor,2.9278808,11.536626,5.2687845
humiliation,4.743148,12.225507,5.1749473
interest,2.6744928,12.836412,3.134091
invigoration,1.2160126,13.004244,4.6196823
irritation,4.86506,13.523752,6.362173
jealousy,1.9957622,12.106549,6.2588563
joy,1.3416682,11.637592,4.273017
laughter,1.1485672,10.895638,3.7146096
loneliness,2.4962392,13.914704,6.526395
love,1.9024243,11.834984,6.029712
low spirits,3.7964008,13.710086,6.7136483
lust,1.1851542,11.99478,5.7545905
melancholy,3.5643196,13.056329,6.7131295
nostalgia,1.7423677,11.782562,5.336307
orgasm,0.9766658,12.203308,5.185544
pain,4.0428715,13.769089,5.607269
pity,3.7517395,12.6200075,6.1977057
pride,3.247115,11.747408,4.715234
queasiness,3.3743324,14.299647,5.1790905
rejuvenation,1.0335219,13.164247,4.5599203
relief,3.089625,12.878075,4.0127707
reluctance,3.620495,13.183155,4.3491077
repugnance,5.3633304,13.537871,5.989495
restlessness,4.191147,14.274162,5.610807
reverence,2.6228607,11.276605,5.3172736
righteous indignation,5.175682,13.8902025,5.9484305
romance,1.7184389,11.935719,6.0842133
sadness,3.4941041,13.008591,6.7744265
satisfaction,1.3104752,11.742505,4.7472873
savoring,0.7949629,11.426067,4.812252
self-pity,4.046324,12.514904,5.968485
shame,4.61833,12.132844,5.234494
shock,3.472523,14.566103,3.7265038
shuddering,3.600395,14.6605215,4.33693
shyness,3.5700443,13.553258,4.4459867
snarkiness,4.668258,13.805289,6.8780055
solidarity,3.5933206,12.32893,6.1924167
stress,3.716264,13.466698,4.9379444
surprise,3.7618177,14.378491,3.2147985
sympathy,3.6018903,12.353189,6.246468
thrill,1.3196713,12.610087,4.3555813
tranquility,2.4549315,13.129978,4.0467224
triumph,2.398966,12.067039,4.559223
unease,4.049861,13.885475,4.758969
urge to escape,1.1323131,13.322605,6.0092926
worry,3.9251704,13.49403,4.416557
yearning,1.2123754,11.708481,5.79352
a surge of pride,2.8840666,11.867167,4.679114
abhorrence,6.077276,13.623349,6.016992
admiration,2.3864625,11.392214,5.33172
adrenaline rush,1.4524214,12.730787,4.198938
aesthetic appreciation,2.1926777,11.323712,5.1303487
affection,1.795466,11.865983,6.048879
aggression,5.512145,14.065108,6.2509995
agitation,4.5536633,14.307013,5.8221326
agony,4.2156005,13.625531,5.9480996
alarm,2.8541727,13.91513,5.210418
alertness,2.8086638,13.896469,5.1878524
alienation,4.349647,14.00042,5.4737444
amazement,3.19652,13.749151,3.1795225
amused elation,1.1673912,11.196619,3.8793507
amused embarrassment,4.747778,12.080542,4.8797116
angry contempt,6.0133,13.358271,5.7662516
angry disgust,5.745682,13.48989,5.2256
angry pain,5.1493244,14.245613,6.0656695
angry surprise,3.7789352,14.353014,3.259686
animosity,5.8885427,13.723829,6.229715
annoyance,4.9828897,13.358809,6.4658594
anticipation,1.9452837,12.903657,4.7261844
apathy,3.1187537,13.651594,6.30522
appreciation,2.2595782,11.3995495,5.091152
arousal,1.3214767,12.584185,5.1692924
attentiveness,2.8665538,12.467417,3.145175
attraction,1.3064021,12.461466,5.2958846
awestruck realization,3.2834327,13.765246,3.230153
awestruck surprise,3.4626648,14.091238,3.1709828
awkwardness,4.758081,12.447268,4.8807287
bafflement,3.066588,14.223759,3.2224169
basking,0.8101384,11.405577,4.8602877
befuddlement,2.8876503,14.166523,3.1651113
bitterness,5.907576,13.602886,6.2351627
bliss,1.6549037,12.117074,4.1569605
blushing,4.74887,12.120605,4.90563
boiling with anger,5.434158,14.11447,6.002464
boldness,2.5761907,12.507263,4.652004
bone-chilling terror,3.9018562,14.539586,4.294065
brotherly love,2.02956,11.832286,6.037798
butterflies in stomach,3.337725,14.188991,4.961466
calmness,2.6154861,13.295132,4.209993
camaraderie,1.8241296,12.011127,5.773895
captivation,1.4003243,12.650622,5.070082
caution,4.1310897,13.337517,4.2586684
certainty,3.6740959,12.817706,4.2197943
charm,1.6662378,11.479038,4.35704
cheer,1.8062077,11.800082,4.3684196
cheerfulness,1.482381,12.117674,4.484399
childlike curiosity,2.590949,13.687064,3.2272522
chills down spine,3.5406332,14.706049,4.310067
choking up,3.0975084,13.35539,6.844749
chuckling,1.1161095,10.944818,3.76505
cold sweats,2.782133,14.033896,4.4034524
comfort,2.4391525,13.706931,4.468607
commitment to someone,2.5333698,11.662833,5.3472066
compassion,3.586595,12.170059,6.097836
concentration,2.9557736,12.419744,3.115163
concern,4.0236945,13.392494,4.4713206
contemplative interest,2.7999215,12.305427,3.2510014
contemptuous doubt,5.8788505,13.197851,5.3981237
contentment,1.3463113,11.791172,4.6101437
courage,3.170423,12.601703,4.5687175
crankiness,4.7163467,13.837141,6.837134
craving,1.0784729,11.696991,5.650782
cringing,4.988829,12.455218,4.934514
crying,3.154807,13.138334,6.869673
crying tears of joy,1.4494841,11.570394,4.130534
curiosity,2.6380618,13.646212,3.2021272
dark humor,1.2113308,10.824278,3.6687012
deep concentration,2.943601,12.366223,3.1704314
deep contemplation,2.8665307,12.157885,3.3936095
deep focus,2.993618,12.446821,3.0821702
deep relief,3.0913384,12.789403,3.621242
defeat,3.360965,13.239523,6.025125
defensiveness,3.198243,13.652958,5.186056
defiance,5.422054,13.935904,6.3452597
dejection,3.9434326,12.960242,5.8145614
delight,1.1310978,11.531849,4.353431
depression,3.494182,13.12523,6.4371037
desire,1.112753,12.007816,5.8030496
desire to approach,1.118156,12.953936,5.886465
desire to avoid,5.8675227,13.289727,6.422894
desolation,3.7882576,13.245536,5.8077393
despising someone,6.064881,13.568134,6.123041
despondency,3.863191,12.941903,6.022543
determination,3.492554,12.723887,4.4015937
detestation,6.0441895,13.562637,6.108355
devastation,3.822115,13.460858,5.593785
devotion,2.4242928,11.392874,5.3177896
disagreement,5.036759,13.065482,6.095019
disbelief,3.5711408,13.720823,3.3967798
discomfort,4.0628533,13.810149,5.216859
discontentment,4.298553,12.92921,6.1686363
discouragement,3.9151855,13.398029,6.486773
disenchantment,3.2175667,12.949164,5.71271
disgrace,4.682811,12.197724,5.317498
disgruntlement,4.7806,13.700232,6.6240144
disgusted contempt,5.954707,13.388524,5.395165
disgusted surprise,5.7177787,13.478066,5.0783424
dishonor,3.4961,11.656611,5.577704
disillusionment,3.9674582,13.0170145,6.0824094
disinterest,3.2136421,13.084662,5.773211
dislike,5.908702,13.303316,6.2458625
displeasure,5.188226,13.3176775,6.295823
dissatisfaction,4.8143835,12.927869,6.1447477
distaste,5.6612363,13.511672,5.2497354
distraction,3.0454745,12.5581,3.0100753
distress,3.9858668,13.12079,5.5625854
distressful confusion,2.8569608,14.086891,3.5668592
distressful sympathy,3.671572,12.527692,6.12901
distrust,4.243038,13.212574,4.0938907
divine inspiration,2.3493254,11.768385,4.3719683
dizziness,3.0256038,14.417842,5.2383533
dominance,1.8605936,13.479633,5.43939
drowsiness,2.9320977,14.040726,5.260291
dumbfoundedness,3.079933,14.249677,3.3751543
earnestness,2.386392,12.5799465,4.5104713
ecstasy,0.9005328,12.088224,4.793379
ecstatic desire,1.0784296,11.885171,5.6976314
edginess,4.7506533,14.043284,6.7888684
egotism,3.781749,12.046494,4.819134
elevation,3.153027,12.941953,3.7617865
embarrassed relief,4.768972,12.166525,4.945213
embarrassment,4.8529806,12.260581,5.0381823
empathic pain,4.149762,13.753845,5.643112
empowerment,1.8683496,13.581058,5.373727
emptiness,2.8896377,13.640278,6.4668937
enchantment,2.0499747,11.718307,4.409577
enjoyment,0.95687735,11.402369,4.368275
enthusiasm,1.7823266,12.509815,4.6883984
envy,2.1847148,12.126626,6.2337584
euphoria,1.3351343,12.447683,4.2725763
excitement,1.4715203,12.642526,4.384291
exhaustion,2.968586,14.065788,5.7091117
exhilaration,1.3686249,12.523612,4.230609
existential dread,4.141981,13.869772,4.8267565
expectancy,2.0611084,12.924053,4.7795014
extreme anger,5.4335485,14.188791,6.063206
extreme awe,3.3698604,13.684959,3.2998216
extreme disappointment,4.462337,12.958415,6.181501
extreme disgust,5.6846933,13.445017,5.0447702
extreme distress,4.050781,13.083416,5.5780005
extreme doubt,3.9495318,13.322579,3.7900543
extreme embarrassment,4.8389196,12.256934,5.023854
extreme fear,4.1064034,14.049171,4.1554966
extreme happiness,1.1631005,11.919483,4.412802
extreme interest,2.657922,12.976295,3.212106
extreme pleasure,0.9285341,11.823022,4.568504
extreme sadness,3.5267975,12.970385,6.7419105
extreme shame,4.823198,12.357467,5.207515
extreme surprise,3.661199,14.232851,3.1903708
exuberance,1.4615084,12.366057,4.253733
fascination,2.6721509,13.576029,3.1879423
fear of missing out,3.7856321,14.086958,4.2793155
fearful anger,5.5548987,14.226323,5.859791
fearful awe,3.707836,14.023781,3.7556915
fearful disgust,5.5535984,13.635257,5.0833907
fearful surprise,3.7777705,14.357146,3.5840862
fearlessness,3.0747783,12.609036,4.5437865
feeling absorbed,2.5018804,14.82197,5.724021
feeling active,1.1779166,13.670972,4.476861
feeling alone,2.4088979,15.024466,6.4505067
feeling anguished,3.5019147,14.345551,6.814575
feeling antipathy,5.8808513,13.525426,6.4722395
feeling appalled,5.2367225,13.289567,5.291083
feeling appreciated,0.9366221,13.62129,4.9951005
feeling apprehensive,2.6126637,15.197169,4.659285
feeling at ease,1.7923166,14.477394,4.776915
feeling attacked,3.4677978,14.862606,7.0385876
feeling bashful,2.429079,14.626784,6.2585683
feeling belittled,3.2420495,15.152508,6.9192085
feeling bittersweet,3.1144366,14.442893,7.1903987
feeling blameworthy,3.3679762,14.488683,7.094682
feeling blue,3.1809328,14.538045,7.247342
feeling bored to tears,2.715908,14.292226,6.221526
feeling burdened,3.3386304,14.518662,6.8627286
feeling caged,2.5723784,15.36231,6.0593295
feeling cheated,3.0703301,15.003886,7.123291
feeling competitive,1.3149931,13.98293,4.976615
feeling cool,1.1823912,13.566197,4.483637
feeling coy,2.3202853,15.122278,5.5978546
feeling daring,1.3839728,13.856303,4.678143
feeling deceived,3.0292406,15.0107,7.078022
feeling delirious,2.5240364,14.708953,5.1515265
feeling disheartened,2.9641395,14.675618,6.8418403
feeling disoriented,2.608303,14.906596,5.3677464
feeling distraught,3.1857402,14.516534,7.0178156
feeling dominant,1.43253,13.890616,5.1727047
feeling downhearted,3.0027084,14.494069,6.9369807
feeling dreamy,1.0926778,13.386556,4.7117267
feeling dreary,2.8201451,14.4521265,6.687676
feeling dull,2.6706288,14.355302,6.2154856
feeling dumb,2.5493205,14.648822,5.8929496
feeling emasculated,3.1673887,15.106687,7.0170836
feeling empty,2.655995,14.506113,6.5097337
feeling energetic,1.162037,13.490735,4.4521093
feeling engaged,1.1797382,13.759219,4.4448853
feeling engrossed,1.2949295,13.92751,4.3910055
feeling excluded,2.4068296,15.257981,6.366724
feeling fearless,1.8650705,14.353762,4.639131
feeling fidgety,2.6639721,14.977308,4.6550503
feeling flirtatious,0.9375666,13.029003,5.176329
feeling flustered,2.7399642,14.871653,4.7045007
feeling foggy,2.710016,14.863073,5.323075
feeling free,1.3126756,13.878439,4.690716
feeling grossed out,5.327759,13.28023,5.1415315
feeling heartened,0.9586811,13.424784,4.7304068
feeling hollow,2.6731305,14.510736,6.58863
feeling horny,0.9176342,12.750884,5.3491917
feeling hurt,3.2066665,14.705118,7.195606
feeling ignored,2.5109649,15.184206,6.5815277
feeling important,1.0366966,13.796889,5.1232314
feeling impressed,0.926488,13.619809,4.7200127
feeling in control,1.4857448,14.200947,4.971498
feeling inhibited,2.4077039,15.206009,6.0107026
feeling inquisitive,1.5548337,13.91496,4.2859125
feeling insecure,2.498573,15.267082,5.116204
feeling insulted,3.6251795,14.920282,6.909127
feeling intimidated,2.5763562,15.193371,4.745839
feeling intrigued,1.4697403,13.776537,4.278606
feeling invincible,1.7401217,14.404327,4.7219276
feeling irritable,3.9514332,14.54002,6.7995133
feeling isolated,2.3307245,15.230729,6.170632
feeling jaded,2.8111005,14.528505,6.7468843
feeling jittery,2.6584272,14.879923,4.7146955
feeling lazy,2.5816631,14.612707,6.0945315
feeling liberated,1.2994149,13.818466,4.7176056
feeling lively,1.1298245,13.4923,4.4681745
feeling loved,1.0046476,13.520673,5.1070337
feeling mad,4.04392,14.58183,6.858942
feeling mischievous,0.99818933,13.177958,5.1263156
feeling mortified,4.993991,12.572433,5.060469
feeling naughty,0.8469045,12.957243,5.206328
feeling obstructed,2.398507,15.315423,6.1261597
feeling offended,3.8597791,14.786566,6.855763
feeling out of place,2.3100972,15.131091,5.9125314
feeling overjoyed,0.907629,13.139784,4.600337
feeling overwhelmed,2.7809396,14.899587,5.9742885
feeling perplexed,2.6666272,14.83161,4.859627
feeling petrified,2.6547446,15.168799,4.618132
feeling pissed off,3.9800253,14.587733,6.883721
feeling powerful,1.3814819,13.901584,4.88957
feeling pumped,1.2605805,13.363355,4.375508
feeling ready,1.5534648,14.15325,4.7588425
feeling reassured,1.8122424,14.554521,4.743697
feeling refreshed,1.0387723,13.500911,4.518409
feeling repentant,3.3530939,14.26398,7.0114026
feeling revitalized,0.93986815,13.568544,4.568732
feeling safe,1.856197,14.762226,4.79157
feeling satiated,0.9696895,11.624376,4.8905225
feeling scared,2.6136532,15.146012,4.6376514
feeling secretive,2.363766,15.2483835,5.5356517
feeling sexy,0.89760125,12.983058,5.156182
feeling shaky,2.6659498,14.827448,4.6586375
feeling silly,2.3870385,14.659456,5.9618587
feeling small,2.3279374,14.917221,6.194127
feeling smart,1.0969865,13.77942,4.7320485
feeling sorry,3.379715,14.36273,7.110148
feeling startled,3.1473484,14.843664,4.119177
feeling stimulated,1.176348,13.417512,4.387437
feeling strong,1.3592596,13.982506,4.8756223
feeling stunned,3.2109773,14.629847,3.757068
feeling subdued,2.3324602,14.646483,5.575715
feeling taken aback,3.2989843,14.64867,3.6861658
feeling threatened,2.5105855,15.235606,4.833695
feeling thwarted,2.8308702,14.867615,6.8760653
feeling timid,2.5969691,15.149087,4.701347
feeling trapped,2.6259701,15.204237,6.244983
feeling tricked,2.9542596,14.996659,7.001622
feeling unappreciated,2.5479424,15.249245,6.7477107
feeling unobstructed,2.4806573,15.063857,5.4153156
feeling unready,2.3519194,15.047011,5.614021
feeling unsafe,2.2419465,15.097204,4.807741
feeling uplifted,0.90380436,13.5852585,4.669991
feeling upset,3.4135823,14.637042,7.166449
feeling used,3.0927525,15.036167,7.147806
feeling valued,1.0075852,13.779741,5.084475
feeling violated,3.2385316,15.174065,6.900477
feeling vulnerable,2.2673695,15.020433,4.956318
feeling weak,2.510173,14.487816,6.085309
feeling worn out,2.8512654,14.313532,6.0549917
fierce loyalty,2.8330863,11.786351,5.246815
flinching,3.376192,14.630747,4.1095552
fondness,1.9189346,11.766591,5.7549214
forgiveness,3.6386294,11.897177,5.705153
freezing with terror,3.8061235,14.571808,4.291481
frustration,4.7630434,13.314991,6.3095245
fulfillment,1.3825737,11.871481,4.798018
fuming,5.411045,14.059947,5.989995
fury,5.401227,14.169828,6.06613
giddy anticipation,1.5539043,12.783123,4.520772
giggling,1.1509984,10.898837,3.716415
gladness,1.7551589,11.591362,4.689497
glee,1.7102365,11.603902,4.237883
gloating,1.5876385,12.419146,4.2734227
gloom,3.6172094,13.158188,6.7367635
glory,2.4393802,11.925578,4.6718
going ballistic,1.821742,13.041203,4.1242323
goosebumps,3.4599555,14.719716,4.3379397
great triumph,2.344388,12.043728,4.544284
grief,3.3323874,12.969753,6.8788753
grimacing,5.267845,13.343307,5.0588574
grouchiness,4.705966,13.909067,6.8104258
grudging respect,2.9743075,11.39271,5.4146843
grumpiness,4.663487,13.794006,6.872149
guilt,3.8969157,12.00609,5.8330064
guilty joy,1.1287273,11.596086,4.3870525
happiness,1.2877653,11.8205595,4.4539566
happy disgust,5.6860437,13.484938,5.043776
happy surprise,3.7089982,14.315022,3.1419752
hatred,5.9021144,13.775966,6.1576653
having fun,0.93948823,11.414839,4.2299104
heart sinking,3.148679,13.734359,7.0208116
heartache,3.2190833,13.37318,7.0340524
heavenly bliss,1.7596341,12.185231,4.0617876
hesitancy,3.6318798,13.163091,4.32237
hesitation,3.5670428,13.050645,4.2409997
high spirits,1.143746,12.802507,4.649865
hope,2.964189,12.646057,5.2202826
hopelessness,3.4418585,13.137032,6.304189
horror,4.020777,14.414183,4.506722
hostility,5.6752105,13.875657,6.2516403
humor,1.2631862,10.881734,3.7326086
hunger,1.0090283,11.521575,5.3859906
hysterical laughter,1.1481189,10.851619,3.6651464
ill temper,5.0307536,13.945037,6.549022
impatience,2.3808098,12.909489,4.866189
inadequacy,2.860555,13.264585,5.7833385
indecision,3.7699165,12.881245,4.259056
indifference,3.1087227,13.651756,6.322004
indignation,5.128728,13.796323,5.940533
inferiority,2.6898203,13.215048,5.733743
insight,2.9284825,12.051421,3.2779856
inspiration,2.3240523,11.891708,4.6087284
intense desire,1.1060811,11.938901,5.7581053
interested confusion,2.590159,13.735182,3.1785524
intimacy,1.5968881,12.001675,5.906336
irony,1.6099116,10.866249,3.7243543
joking,1.230346,10.786759,3.6338286
lack of focus,3.021198,12.458198,3.026246
lightheadedness,3.0133312,14.459308,5.2820277
loathing,5.688226,13.590653,5.742925
longing,1.2285527,11.721377,5.7611284
loving sympathy,3.3189561,12.293315,6.377151
loyalty,2.859694,11.601241,5.225367
marveling,3.2173622,13.726894,3.1558425
maternal love,1.9838293,11.825212,6.106082
mild joy,1.262711,11.548661,4.2816024
misery,3.7800174,13.096656,6.4647603
mistrust,4.259563,13.239987,4.1272044
moral repugnance,5.3013477,13.462699,6.057441
mournfulness,3.4210846,12.9494295,6.856136
mystification,2.8740191,14.126252,3.1795726
nausea,3.3035674,14.238286,5.1831207
nervous breakdown,3.7344213,13.90507,4.6578507
nervous laughter,1.1849318,10.856772,3.6793694
nervousness,3.4955285,13.717147,4.5513763
nirvana,1.6933948,12.145626,4.169731
nonchalance,2.6987069,13.422139,4.2008
not feeling in control,1.7375015,14.438266,5.169404
numbness,3.386537,14.234202,5.569009
optimism,2.7107654,12.616864,5.176757
out-of-body experience,2.771242,14.619445,4.871592
outrage,5.1985064,13.890411,5.7579474
overexcitement,1.3850342,12.531833,4.2242155
panic,3.718081,14.027711,4.547602
panic attack,3.7389162,13.914883,4.6029534
paranoia,4.2134924,13.569965,4.262348
passion,1.4118891,11.957331,5.6166644
patriotism,2.9495459,11.657792,4.934249
peacefulness,2.3938472,13.069038,4.082937
pensiveness,2.9163263,12.184585,3.3295891
perseverance,3.2469873,12.69274,4.587391
pessimism,3.752028,13.239588,6.5770144
playfulness,0.91284734,11.424184,4.149165
pleasant surprise,3.740612,14.335856,3.1604793
pleasure,0.8820767,11.620218,4.6248407
pondering,2.8878808,12.1277685,3.312703
powerlessness,2.2940524,13.5702305,5.6636147
pride in country,3.185528,11.724833,4.7484546
pride in family,3.2329772,11.7068405,4.7759733
pride in self,3.6246252,11.937115,4.7988253
profound disapproval,5.3391857,13.12687,6.1913204
puzzlement,2.8501267,14.135545,3.1845684
rage,5.486735,14.132576,6.0923743
rapture,3.8167589,13.501243,5.4808316
realization,2.8765998,12.494551,3.549959
redemption,3.6393108,11.911444,5.612984
regret,3.8315954,12.123693,5.9672055
relaxation,2.7464,13.233955,4.2797
releasing tension,3.1368406,13.134836,4.54466
relieved contentment,1.3740023,11.832779,4.647072
relishing,0.78572357,11.45044,4.8566265
reminiscence,1.9207938,11.79677,5.0726576
remorse,3.9082317,12.023207,5.8823614
resentment,5.7972307,13.475506,6.18494
resignation,4.6922784,12.628132,5.823471
respect,2.8524463,11.396802,5.423557
revulsion,5.6134086,13.591767,5.134498
romantic jealousy,1.8491635,12.030029,6.220178
romantic love,1.8200049,11.8910055,6.0903068
rumination,3.0497055,12.214099,3.529112
sad anger,5.1838636,14.366893,6.077307
sad disgust,5.7088604,13.469799,4.9909625
sad fear,4.053609,14.027726,4.2934113
sad surprise,3.8053865,14.385655,3.211223
sarcasm,1.3754995,10.801579,3.6714118
satiation of hunger,0.945274,11.486607,5.2316794
satiation of thirst,0.98204726,11.459284,5.3002534
scorn,6.114816,13.347117,5.817047
seething hatred,5.8158913,13.965217,5.997785
self-anger,5.3241544,14.314765,6.2036185
self-confidence,3.7981973,12.2706585,4.670837
self-consciousness,4.063454,12.178184,4.909415
self-disgust,5.634062,13.470146,5.055861
self-dissatisfaction,4.3864,12.607976,5.742316
self-doubt,4.071648,12.540534,4.464221
self-loathing,4.526494,12.60718,5.587508
self-love,3.7578473,12.04879,5.0362144
sense of agreement,1.3753084,15.06887,5.3963
sense of belonging,1.7043725,15.167496,5.5886
sense of failure,2.7374756,14.743584,6.856042
sense of fairness,1.3126107,15.141267,5.488554
sense of flourishing,0.8851175,13.580713,4.626719
sense of improvement,0.95347106,13.9336,4.7107477
sense of inertia,1.5738935,14.965645,5.236807
sense of injustice,1.3392756,15.16003,5.5002546
sense of justice,1.317169,15.147009,5.483535
sense of mystery,1.6278557,14.969807,5.1783986
sense of narrow escape,1.8321043,15.070331,5.517979
sense of security,1.7108392,15.013172,5.089626
sense of unfairness,1.3224587,15.169111,5.527958
sensory pleasure,0.87178826,11.597572,4.63935
serenity,2.5273874,13.158232,4.121582
severe pain,4.1657214,13.749012,5.6384664
sexual arousal,1.1594071,12.412538,5.445252
sexual desire,1.0974329,12.122515,5.780118
sexual frustration,1.2022846,12.250071,5.726476
sexual gratification,0.9886775,12.174234,5.360527
sexual tension,1.3913585,12.285509,5.796931
sheepishness,4.605684,13.825461,6.9223056
skepticism,3.7545023,13.377586,3.678721
sleepiness,2.9209929,14.071195,5.250106
sluggishness,2.9899247,14.175296,5.525229
smiling,1.2125535,11.82265,4.367121
smugness,4.4637027,13.671825,6.930356
sneering contempt,6.0961375,13.326433,5.75958
social anxiety,3.6683419,13.747385,4.471361
sorrow,3.488443,12.909984,6.7743196
spiritual epiphany,2.689408,12.213535,3.690975
spite,5.973405,13.50673,6.095312
strain,3.9115796,13.57391,5.4900875
stupor,2.900948,14.356641,3.9820309
submissiveness,1.6817828,13.532108,5.442289
suffering,4.045291,13.486414,5.826239
sulkiness,4.6018667,13.927107,6.7699037
sullenness,3.8053901,13.501701,6.6759086
superiority,2.356164,13.101208,5.541844
suspicion,4.207118,13.339374,4.2125797
tearing up laughing,1.1433933,10.92023,3.735825
tenderness,1.7906661,11.788626,6.1175942
tension,3.3870256,13.262369,4.7357016
terror,4.0042076,14.368137,4.408706
thankfulness,1.898939,11.535828,4.813417
thirst,1.0795782,11.44467,5.524044
thoughtfulness,2.8209858,12.147888,3.4007587
tiredness,2.9687357,14.109657,5.6094556
torment,4.3122067,13.668657,5.881346
torture,4.0143094,13.66644,5.4636064
transcendence,2.2697067,12.503233,3.842496
trauma,3.8165257,13.685876,5.406646
treasuring the moment,1.8223221,12.74356,4.5682883
trembling with fear,3.5547264,14.591526,4.2888274
triumphant amusement,1.1741713,11.281729,3.9734633
triumphant anger,5.3217235,14.262,6.1063404
trust,4.164986,13.036603,4.200215
turmoil,4.812859,14.221827,5.955485
uncertainty,3.800129,12.987081,4.1229334
unhappiness,3.8247888,13.035139,6.5100117
unspeakable horror,4.0596433,14.449218,4.4380827
urge to attack,1.1721443,13.205583,6.0692463
urge to be creative,1.0627335,13.157496,5.8972535
urge to explore,1.054781,13.198264,5.9425225
urge to provide care,1.2218573,13.12245,6.049176
urge to provide help,1.2381346,13.155332,6.0778956
utter contempt,6.0928946,13.267654,5.697401
utter despair,3.6275208,13.015231,6.3433223
utter disbelief,3.4394412,13.901781,3.3165207
vengefulness,5.848861,13.709545,6.1505237
vigor,2.3116393,12.602205,4.741654
vindication,3.7587907,12.082195,5.503019
vitality,1.6635559,13.153408,4.6482415
vulnerability,3.244217,13.562381,5.3207116
warmth,2.1553934,13.631319,4.4308796
weakness,3.0314894,13.555527,5.4822536
weariness,2.9851475,14.026907,5.8753743
wonder,3.0135398,13.647765,3.036165
wrath,4.7349005,13.819132,5.9384356
zeal,2.2060802,12.478998,4.7525787
